<svg width="30" height="30" viewBox="0 0 30 30" fill="none" xmlns="http://www.w3.org/2000/svg">
<rect width="30" height="30" rx="5" fill="#25DF8F"/>
<path d="M18.0684 18.0703H12.9316L11.9551 21H8.83984L14.1328 6.78125H16.8477L22.1699 21H19.0547L18.0684 18.0703ZM13.7227 15.6973H17.2773L15.4902 10.375L13.7227 15.6973Z" fill="white"/>
</svg>
